-- Merging decision tree log ---
manifest
ADDED from F:\PREST2019\Android-ImageMagick-master\app\src\main\AndroidManifest.xml:2:1-18:12
INJECTED from F:\PREST2019\Android-ImageMagick-master\app\src\main\AndroidManifest.xml:2:1-18:12
INJECTED from F:\PREST2019\Android-ImageMagick-master\app\src\main\AndroidManifest.xml:2:1-18:12
INJECTED from F:\PREST2019\Android-ImageMagick-master\app\src\main\AndroidManifest.xml:2:1-18:12
INJECTED from F:\PREST2019\Android-ImageMagick-master\app\src\main\AndroidManifest.xml:2:1-18:12
INJECTED from F:\PREST2019\Android-ImageMagick-master\app\src\main\AndroidManifest.xml:2:1-18:12
INJECTED from F:\PREST2019\Android-ImageMagick-master\app\src\main\AndroidManifest.xml:2:1-18:12
	package
		ADDED from F:\PREST2019\Android-ImageMagick-master\app\src\main\AndroidManifest.xml:2:11-35
		INJECTED from F:\PREST2019\Android-ImageMagick-master\app\src\main\AndroidManifest.xml
		INJECTED from F:\PREST2019\Android-ImageMagick-master\app\src\main\AndroidManifest.xml
	android:versionName
		ADDED from F:\PREST2019\Android-ImageMagick-master\app\src\main\AndroidManifest.xml:4:7-32
		INJECTED from F:\PREST2019\Android-ImageMagick-master\app\src\main\AndroidManifest.xml
		INJECTED from F:\PREST2019\Android-ImageMagick-master\app\src\main\AndroidManifest.xml
	xmlns:android
		ADDED from F:\PREST2019\Android-ImageMagick-master\app\src\main\AndroidManifest.xml:4:33-91
	android:versionCode
		ADDED from F:\PREST2019\Android-ImageMagick-master\app\src\main\AndroidManifest.xml:3:7-30
		INJECTED from F:\PREST2019\Android-ImageMagick-master\app\src\main\AndroidManifest.xml
		INJECTED from F:\PREST2019\Android-ImageMagick-master\app\src\main\AndroidManifest.xml
uses-sdk
ADDED from F:\PREST2019\Android-ImageMagick-master\app\src\main\AndroidManifest.xml:5:5-72
INJECTED from F:\PREST2019\Android-ImageMagick-master\app\src\main\AndroidManifest.xml:5:5-72
INJECTED from F:\PREST2019\Android-ImageMagick-master\app\src\main\AndroidManifest.xml:5:5-72
INJECTED from F:\PREST2019\Android-ImageMagick-master\app\src\main\AndroidManifest.xml:5:5-72
INJECTED from F:\PREST2019\Android-ImageMagick-master\app\src\main\AndroidManifest.xml:5:5-72
	android:targetSdkVersion
		ADDED from F:\PREST2019\Android-ImageMagick-master\app\src\main\AndroidManifest.xml:5:41-70
		INJECTED from F:\PREST2019\Android-ImageMagick-master\app\src\main\AndroidManifest.xml
		INJECTED from F:\PREST2019\Android-ImageMagick-master\app\src\main\AndroidManifest.xml
	android:minSdkVersion
		ADDED from F:\PREST2019\Android-ImageMagick-master\app\src\main\AndroidManifest.xml:5:15-40
		INJECTED from F:\PREST2019\Android-ImageMagick-master\app\src\main\AndroidManifest.xml
		INJECTED from F:\PREST2019\Android-ImageMagick-master\app\src\main\AndroidManifest.xml
uses-permission#android.permission.WRITE_EXTERNAL_STORAGE
ADDED from F:\PREST2019\Android-ImageMagick-master\app\src\main\AndroidManifest.xml:6:5-97
	android:name
		ADDED from F:\PREST2019\Android-ImageMagick-master\app\src\main\AndroidManifest.xml:6:22-78
application
ADDED from F:\PREST2019\Android-ImageMagick-master\app\src\main\AndroidManifest.xml:8:5-17:19
	android:label
		ADDED from F:\PREST2019\Android-ImageMagick-master\app\src\main\AndroidManifest.xml:8:48-80
	android:debuggable
		ADDED from F:\PREST2019\Android-ImageMagick-master\app\src\main\AndroidManifest.xml:8:81-106
	android:icon
		ADDED from F:\PREST2019\Android-ImageMagick-master\app\src\main\AndroidManifest.xml:8:18-47
activity#magick.AndroidMagickActivity
ADDED from F:\PREST2019\Android-ImageMagick-master\app\src\main\AndroidManifest.xml:9:9-15:20
	android:label
		ADDED from F:\PREST2019\Android-ImageMagick-master\app\src\main\AndroidManifest.xml:10:19-51
	android:name
		ADDED from F:\PREST2019\Android-ImageMagick-master\app\src\main\AndroidManifest.xml:9:19-62
intent-filter#android.intent.action.MAIN+android.intent.category.LAUNCHER
ADDED from F:\PREST2019\Android-ImageMagick-master\app\src\main\AndroidManifest.xml:11:13-14:29
action#android.intent.action.MAIN
ADDED from F:\PREST2019\Android-ImageMagick-master\app\src\main\AndroidManifest.xml:12:17-69
	android:name
		ADDED from F:\PREST2019\Android-ImageMagick-master\app\src\main\AndroidManifest.xml:12:25-66
category#android.intent.category.LAUNCHER
ADDED from F:\PREST2019\Android-ImageMagick-master\app\src\main\AndroidManifest.xml:13:17-77
	android:name
		ADDED from F:\PREST2019\Android-ImageMagick-master\app\src\main\AndroidManifest.xml:13:27-74
